module gitlab.com/siemonster-kubernetes/cfn-vpc-destroy-eni

go 1.19

require (
	github.com/aws/aws-lambda-go v1.13.3
	github.com/aws/aws-sdk-go-v2 v1.18.0
	github.com/aws/aws-sdk-go-v2/config v1.18.22
	github.com/aws/aws-sdk-go-v2/service/ec2 v1.98.0
)

require (
	github.com/aws/aws-sdk-go-v2/credentials v1.13.21 // indirect
	github.com/aws/aws-sdk-go-v2/feature/ec2/imds v1.13.3 // indirect
	github.com/aws/aws-sdk-go-v2/internal/configsources v1.1.33 // indirect
	github.com/aws/aws-sdk-go-v2/internal/endpoints/v2 v2.4.27 // indirect
	github.com/aws/aws-sdk-go-v2/internal/ini v1.3.34 // indirect
	github.com/aws/aws-sdk-go-v2/service/internal/presigned-url v1.9.27 // indirect
	github.com/aws/aws-sdk-go-v2/service/sso v1.12.9 // indirect
	github.com/aws/aws-sdk-go-v2/service/ssooidc v1.14.9 // indirect
	github.com/aws/aws-sdk-go-v2/service/sts v1.18.10 // indirect
	github.com/aws/smithy-go v1.13.5 // indirect
	github.com/jmespath/go-jmespath v0.4.0 // indirect
)
